{
  "id": 19,
  "lectureNumber": 19,
  "section": "JavaScript",
  "title": "Лекция 19. Введение в JavaScript. Часть 1",
  "description": "Основные конструкции языка JavaScript, переменные, типы данных",
  "lector": "Махмуд Бабаев",
  "src": "https://www.youtube.com/embed/_FcmDBIgRnc",
  "files": {
    "presentation": true,
    "project": true
  },
  "links": [
    {
      "text": "var vs let",
      "link": "https://medium.com/nuances-of-programming/%D0%B2-%D1%87%D1%91%D0%BC-%D1%80%D0%B0%D0%B7%D0%BD%D0%B8%D1%86%D0%B0-%D0%BC%D0%B5%D0%B6%D0%B4%D1%83-var-let-%D0%B8-const-%D0%B2-javascript-3084bfe9f7a3"
    },
    {
      "text": "Зарезервированные слова",
      "link": "https://developer.mozilla.org/ru/docs/Web/JavaScript/Reference/Lexical_grammar#%D0%9A%D0%BB%D1%8E%D1%87%D0%B5%D0%B2%D1%8B%D0%B5_%D1%81%D0%BB%D0%BE%D0%B2%D0%B0"
    },
    {
      "text": "BigInt 1",
      "link": "https://learn.javascript.ru/bigint"
    },
    {
      "text": "BigInt 2",
      "link": "https://developer.mozilla.org/ru/docs/Web/JavaScript/Reference/Global_Objects/BigInt"
    },
    {
      "text": "Symbol 1",
      "link": "https://learn.javascript.ru/symbol"
    },
    {
      "text": "Symbol 2",
      "link": "https://developer.mozilla.org/ru/docs/Web/JavaScript/Reference/Global_Objects/Symbol"
    },
    {
      "text": "Справочник по JavaScript",
      "link": "https://developer.mozilla.org/ru/docs/Web/JavaScript"
    },
    {
      "text": "Учебник по JS",
      "link": "https://learn.javascript.ru/"
    },
    {
      "text": "Про примитивные значения",
      "link": "https://developer.mozilla.org/ru/docs/Web/JavaScript/Data_structures"
    }
  ],
  "homework": {
    "task": "В каждой папке есть файл \"hw.js\", откройте его и выполните задание, описанное в файле.\nЧто бы проверить работу, достаточно запустить \"index.html\" из той же папки.\nСсылку отправлять на почту:\nMFBabaev@beeline.ru\nС темой\n\"Лекция 19: ФИО\"",
    "send": "MFBabaev@beeline.ru"
  }
}