{
  "id": 16,
  "lectureNumber": 16,
  "section": "CSS",
  "title": "Лекция 16. Адаптивная вёрстка",
  "description": "Адаптивная вёрстка. Использование media и viewport",
  "lector": "Павел Захаров",
  "src": "https://www.youtube.com/embed/1rbfltFj3Vw",
  "files": {
    "presentation": false,
    "project": false
  },
  "links": null,
  "homework": {
    "task": "Задание:\n\nСверстать адаптивный Landing Page.\nСсылка на макет: https://www.figma.com/file/hkYo3CHTyYGX7eCetbzBHT/16-BeeInterns-HW_LP?node-id=0%3A1\nИспользуйте шрифт Times New Roman или, как в figma - Titillium Web, но в таком случае надо его скачать и подключить.\n\nСсылку на PullRequest присылать на почту PaVZakharov@beeline.ru c темой письма #16 HW. В тексте письма обязательно указать ФИО интерна.\n\nТребования:\nИспользовать стратегию Mobile First.\nИспользовать семантическую разметку - на одних div не пойдет.\nПо поддержке в браузере - достаточно, чтобы корректно работало в Google Chrome.\nПри необходимости не забывать добавлять стили состояниям (hover, active, focus) интеркативных элементов.\nФорма должна отправляться методом POST по адресу /posturl/newsletter/\nТребования к валидации формы:\n  - Оба поля обязательны для заполнения\n  - Поле Name: минимум 2 символа, максимум 30, ввод только латинских букв [A-Za-z]\n  - Поле Email: должен содержать email пользователя\n",
    "send": "PaVZakharov@beeline.ru"
  }
}