{
  "id": 1,
  "lectureNumber": 1,
  "section": "Тестирование",
  "title": "Лекция 1. Тестирование, автотесты, Selenium Webdriver, html-теги, атрибуты",
  "description": "Введение: коротко о тестировании, какие бывают автотесты, для чего нужны; что такое Selenium Webdriver; основные html-теги, основные атрибуты",
  "lector": "Павел Уколов",
  "src": "https://www.youtube.com/embed/CueJDjYDmXk",
  "files": {
    "presentation": true,
    "project": false
  },
  "links": [
    {
      "text": "Martin Fowler о пирамиде тестирования",
      "link": "https://martinfowler.com/articles/practical-test-pyramid.html"
    },
    {
      "text": "Selenium",
      "link": "https://www.selenium.dev/"
    },
    {
      "text": "Mocha",
      "link": "https://mochajs.org/"
    },
    {
      "text": "Node.JS",
      "link": "https://nodejs.org/ru/"
    }
  ],
  "homework": {
    "task": "Установить все инструменты, необходимые для работы. Проверить установку. Написать такой же базовый тест (без параметризации), изменив вариант поискового запроса. Запустить тест и убедиться, что он отработал верно. Сделать скриншот успешного результата.",
    "send": "@Ukolovp"
  }
}
