{
  "id": 9,
  "lectureNumber": 9,
  "section": "HTML",
  "title": "Лекция 9. Структура HTML. Блоки head, body; Подключение стилей",
  "description": "Структура HTML. Назначение блоков: <head />, <body />. Виды подключения стилей",
  "lector": "Марина Татаринцева",
  "src": "https://www.youtube.com/embed/jWR47tUHJAg",
  "files": {
    "presentation": false,
    "project": true
  },
  "links": null,
  "homework": {
    "task": "Реальное задание из практики: верстка вкладки для карточки интернет-магазина. \n\nНеобходимо создать папку html и в ней файл index.html, создать структуру страницы и заверстать контент \n\nИз файла \"Обзор мобильного телефона Nokia 8110 4G Black.docx\", подключить файл стилей style.css \n\nТо, что должно получиться можно посмотреть в папке html",
    "send": "MTatarintseva@beeline.ru"
  }
}