{
  "id": 24,
  "lectureNumber": 24,
  "section": "JavaScript",
  "title": "Лекция 24. Свойства и методы форм",
  "description": "Свойства и методы форм. События: focus, blur, change",
  "lector": "Василий Ханинев",
  "src": "https://www.youtube.com/embed/nmh3A_YK3i8",
  "files": {
    "presentation": true,
    "project": true
  },
  "links": [
    {
      "text": "https://developer.mozilla.org/",
      "link": "https://developer.mozilla.org/"
    },
    {
      "text": "https://learn.javascript.ru/",
      "link": "https://learn.javascript.ru/"
    }
  ],
  "homework": {
    "task": "взять input type range, сделать демку (с помощью него управлять\nинтенсивностью чего-нибудь происходящего на странице)\n\nЕсли вы очень злобный вдруг (пишите что удалось узнать из видео)\nhttps://www.youtube.com/watch?v=5nmpokoRaZI",
    "send": "@js_satan"
  }
}